<svg width="256" height="256" viewBox="0 0 256 256" fill="none" xmlns="http://www.w3.org/2000/svg">
<rect width="256" height="256" rx="32" fill="#0B71D9"/>
<path d="M0 128H256V224C256 241.673 241.673 256 224 256H32C14.3269 256 0 241.673 0 224V128Z" fill="#FED501"/>
<path d="M94 178.773H104.937C117.089 178.773 123.57 172.778 123.57 161.536V48H158V163.785C158 189.639 138.152 208 110.203 208H94V178.773Z" fill="white"/>
</svg>
